[
  {
    "request": {
      "body": "",
      "headers": {
        "accept-encoding": "gzip",
        "api-key": "YqCA/SFksMdDaXJqeCJVXYNfddg=",
        "content-type": "application/json",
        "user-agent": "req/0.4.8"
      },
      "method": "get",
      "options": [],
      "request_body": "",
      "url": "http://localhost:4100/api/facility/insurances??"
    },
    "response": {
      "binary": false,
      "body": "{\"data\":{\"entries\":[{\"avatar\":\"/uploads/facility_avatars/5783a587-bbfd-44fb-9610-16055667803e.jpg?v=63876300900\",\"description\":\"EastWest Healthcare is likely a healthcare provider or insurance company, offering a range of medical services or health insurance products. They may provide access to a network of healthcare facilities and professionals, ensuring comprehensive care and support for their clients.\",\"id\":\"6f9227e6-22d0-4b37-8549-abea4b67194b\",\"inserted_at\":\"2024-02-28T00:55:00.000000Z\",\"link\":\"www.example.com\",\"name\":\"Eastwest Healthcare\"},{\"avatar\":\"/uploads/facility_avatars/a7beb7d6-8d59-49bc-85ba-f34728cb3f26.png?v=63876300942\",\"description\":\"FlexiCare could refer to a healthcare service or insurance product that offers flexible care options or plans to its members, emphasizing adaptability and personalized health solutions.\",\"id\":\"4466119e-7e87-4bff-b01a-faab8e2bcf46\",\"inserted_at\":\"2024-02-28T00:55:43.000000Z\",\"link\":\"www.example.com\",\"name\":\"Flexicare\"},{\"avatar\":\"/uploads/facility_avatars/2de00395-585d-4f93-afdb-8652e33f8584.png?v=63876301017\",\"description\":\"HMI - Health Maintenance, Inc. is likely a Health Maintenance Organization (HMO) providing a variety of health insurance plans and medical services to ensure the well-being and health management of its members through a network of healthcare providers.\",\"id\":\"5b4588a4-f2e4-4bac-821c-4b191d1ca864\",\"inserted_at\":\"2024-02-28T00:56:57.000000Z\",\"link\":\"www.example.com\",\"name\":\"HMI - Health Maintenance, Inc.\"},{\"avatar\":\"/uploads/facility_avatars/75140aa7-b26c-48e5-aa51-ea7b22edc49e.png?v=63876302650\",\"description\":\"HPPI - Health Plan Philippines Inc. is a company that likely offers health insurance and related services, providing individuals and organizations with various health plan options tailored to meet their specific healthcare needs.\",\"id\":\"a1477534-7460-4cad-b8be-0907f43ae816\",\"inserted_at\":\"2024-02-28T01:24:10.000000Z\",\"link\":\"www.example.com\",\"name\":\"HPPI - Health Plan Philippines Inc\"},{\"avatar\":\"/uploads/facility_avatars/5ea7f4c9-35bb-4c99-9977-b4824a892f2a.png?v=63876302750\",\"description\":\"IWC - IMS Wellth Care Inc. Medical Clinic is likely a healthcare facility offering a range of medical services and treatments, focusing on personalized care and wellness, and possibly associated with IMS Wellth Care Inc., a company providing health and wellness solutions.\",\"id\":\"20c192b4-b391-4dc0-94b3-2fbf47d21f13\",\"inserted_at\":\"2024-02-28T01:25:50.000000Z\",\"link\":\"www.example.com\",\"name\":\"IWC - IMS Wellth Care Inc. Medical Clinic\"},{\"avatar\":\"/uploads/facility_avatars/77ae0994-ec79-4825-91ba-5c35845d5ca3.png?v=63875891937\",\"description\":\"AmPhil is likely a company or organization, but without specific context, it's challenging to provide an accurate description. It could stand for American Philippines, Amphibious Philippines, or another combination. More details are needed to give a precise summary.\",\"id\":\"e6496663-0de4-4493-b66d-fbf129e03754\",\"inserted_at\":\"2024-02-23T07:18:57.000000Z\",\"link\":\"link.com\",\"name\":\"amphil\"},{\"avatar\":\"/uploads/facility_avatars/bc4370e5-4473-4b7f-a7c2-17a972f0ae3b.png?v=63876300671\",\"description\":\"AsianLife is a prominent HMO providing diverse health insurance options, ensuring access to an extensive network of medical services and professionals for its members.\",\"id\":\"4b2b8098-c834-4c5b-a752-b7daac4542eb\",\"inserted_at\":\"2024-02-28T00:51:12.000000Z\",\"link\":\"www.example.com\",\"name\":\"asianlife\"},{\"avatar\":\"/uploads/facility_avatars/935a5b16-7e2b-4dea-94b4-86495977d666.png?v=63876300795\",\"description\":\"Avega could refer to a company, product, or service, depending on the context. It might be associated with healthcare, technology, or another industry. Without more details, it's challenging to provide a specific description.\",\"id\":\"45b44d78-bf7b-4fe5-a51d-caad1b0386fa\",\"inserted_at\":\"2024-02-28T00:53:15.000000Z\",\"link\":\"www.example.com\",\"name\":\"avega\"},{\"avatar\":\"/uploads/facility_avatars/705d5ea3-03ba-425a-b43a-41e2ff6e9818.png?v=63876300833\",\"description\":\"BenLife is potentially an abbreviation or a brand name that could be associated with various sectors such as insurance, health, finance, or lifestyle. Without additional context, it's challenging to provide a detailed description.\",\"id\":\"f7f7669b-83f6-42ed-9489-d298146592cc\",\"inserted_at\":\"2024-02-28T00:53:54.000000Z\",\"link\":\"www.example.com\",\"name\":\"Benlife\"},{\"avatar\":\"/uploads/facility_avatars/a0fbff19-f2ba-4785-a200-28da1d3236e6.jpg?v=63876302809\",\"description\":\"Insular Health Care is likely a health insurance provider offering a wide range of health insurance products and services designed to meet the healthcare needs of individuals, families, and corporate clients, emphasizing comprehensive coverage and quality care.\",\"id\":\"26e83ffb-eb81-41f7-8a72-972bc69f93ac\",\"inserted_at\":\"2024-02-28T01:26:50.000000Z\",\"link\":\"www.example.com\",\"name\":\"Insular Health Care\"}],\"layout\":false,\"page_number\":1,\"page_size\":10,\"total_entries\":20,\"total_pages\":2}}",
      "headers": {
        "cache-control": "max-age=0, private, must-revalidate",
        "content-length": "4982",
        "content-type": "application/json; charset=utf-8",
        "date": "Tue, 05 Mar 2024 02:32:09 GMT",
        "location": "/api/facility/insurances",
        "server": "Cowboy",
        "x-request-id": "F7m9iSYqG2raaYMAAANh"
      },
      "status_code": 200,
      "type": "ok"
    }
  }
]